  -1.2000000e-01   8.3011089e-01   6.7539726e-01   5.0643160e-03
  -1.1200000e-01   8.1739073e-01   6.7582650e-01   7.9004115e-03
  -1.0400000e-01   8.3830691e-01   6.7625602e-01   1.5061696e-02
  -9.6000000e-02   8.5156550e-01   6.7668581e-01   1.4987714e-02
  -8.8000000e-02   8.6658491e-01   6.7711588e-01   1.7019160e-02
  -8.0000000e-02   8.9268095e-01   6.7754621e-01   1.6787827e-02
  -7.2000000e-02   9.0349762e-01   6.7797683e-01   1.4010820e-02
  -6.4000000e-02   9.1975538e-01   6.7840771e-01   1.2314335e-02
  -5.6000000e-02   9.3180224e-01   6.7883887e-01   1.1255247e-02
  -4.8000000e-02   9.4516765e-01   6.7927030e-01   2.2593724e-02
  -4.0000000e-02   9.6053628e-01   6.7970201e-01   1.8404854e-02
  -3.2000000e-02   9.6634926e-01   6.8013399e-01   1.4296712e-02
  -2.4000000e-02   9.7944129e-01   6.8056624e-01   1.2851650e-02
  -1.6000000e-02   9.8782333e-01   6.8099877e-01   1.7646705e-02
  -8.0000000e-03   1.0000000e+00   6.8143158e-01   8.4269036e-03
   0.0000000e+00   9.9998718e-01   6.8186466e-01   1.2554550e-04
   8.0000000e-03   9.9090508e-01   6.8143158e-01   3.9848238e-03
   1.6000000e-02   9.9793873e-01   6.8099877e-01   8.9403411e-03
   2.4000000e-02   9.8497184e-01   6.8056624e-01  -4.5273623e-03
   3.2000000e-02   9.6636786e-01   6.8013399e-01   3.8615642e-03
   4.0000000e-02   9.6162481e-01   6.7970201e-01  -1.5073014e-03
   4.8000000e-02   9.4744972e-01   6.7927030e-01  -5.9527486e-03
   5.6000000e-02   9.2642608e-01   6.7883887e-01  -2.0663295e-05
   6.4000000e-02   9.1641172e-01   6.7840771e-01   1.1979007e-02
   7.2000000e-02   8.9792468e-01   6.7797683e-01   7.1308627e-03
   8.0000000e-02   8.7650448e-01   6.7754621e-01  -4.9323758e-03
   8.8000000e-02   8.7337499e-01   6.7711588e-01  -5.2950402e-03
   9.6000000e-02   8.5352825e-01   6.7668581e-01   2.3398261e-03
   1.0400000e-01   8.3136035e-01   6.7625602e-01   4.4046981e-03
   1.1200000e-01   8.1190337e-01   6.7582650e-01  -3.4175570e-03
   1.2000000e-01   8.0774689e-01   6.7539726e-01  -6.6913516e-03
   1.2800000e-01   7.9548793e-01   6.7496829e-01  -7.0384037e-03
   1.3600000e-01   7.7472816e-01   6.7453959e-01   1.7930076e-03
   1.4400000e-01   7.5729328e-01   6.7411116e-01   6.5664058e-04
   1.5200000e-01   7.4932409e-01   6.7368300e-01   1.9135459e-03
   1.6000000e-01   7.3785063e-01   6.7325512e-01  -5.7422806e-03
   1.6800000e-01   7.2788311e-01   6.7282751e-01  -3.3419568e-03
   1.7600000e-01   7.1395126e-01   6.7240017e-01  -2.2012255e-03
   1.8400000e-01   7.0654994e-01   6.7197310e-01  -1.0872217e-03
   1.9200000e-01   7.0169285e-01   6.7154630e-01   2.2306951e-03
   2.0000000e-01   6.9182865e-01   6.7111977e-01   4.2022159e-03
   2.0800000e-01   6.9385007e-01   6.7069352e-01   9.0921757e-04
   2.1600000e-01   6.9370680e-01   6.7026753e-01   2.4825734e-03
   2.2400000e-01   6.8220422e-01   6.6984182e-01   5.2152927e-04
   2.3200000e-01   6.8267542e-01   6.6941637e-01  -6.9140505e-03
   2.4000000e-01   6.6610274e-01   6.6899120e-01   1.0185555e-02
   2.4800000e-01   6.6651932e-01   6.6856630e-01   8.5067320e-03
   2.5600000e-01   6.7236535e-01   6.6814166e-01  -2.7032463e-03
   2.6400000e-01   6.6333744e-01   6.6771730e-01   3.7461136e-03
   2.7200000e-01   6.6249977e-01   6.6729320e-01   2.2566906e-03
   2.8000000e-01   6.6373176e-01   6.6686938e-01   2.5697855e-03
   2.8800000e-01   6.6021409e-01   6.6644582e-01  -3.0025217e-05
   2.9600000e-01   6.5752182e-01   6.6602253e-01   9.0868810e-03
   3.0400000e-01   6.5888414e-01   6.6559952e-01  -8.5213288e-04
   3.1200000e-01   6.4879820e-01   6.6517677e-01  -2.4173932e-03
   3.2000000e-01   6.5176547e-01   6.6475429e-01   2.5240432e-03
   3.2800000e-01   6.5358204e-01   6.6433207e-01  -1.5391466e-03
   3.3600000e-01   6.5483963e-01   6.6391013e-01  -8.8916138e-04
   3.4400000e-01   6.5653104e-01   6.6348845e-01   4.9530271e-03
   3.5200000e-01   6.5040285e-01   6.6306704e-01   2.0271434e-03
   3.6000000e-01   6.5601088e-01   6.6264590e-01  -3.5035175e-04
   3.6800000e-01   6.5637954e-01   6.6222503e-01  -8.8874193e-04
   3.7600000e-01   6.5551736e-01   6.6180442e-01  -1.7831157e-03
   3.8400000e-01   6.5490205e-01   6.6138408e-01  -2.7666460e-03
   3.9200000e-01   6.5492923e-01   6.6096401e-01   2.3775504e-03
   4.0000000e-01   6.5760661e-01   6.6054420e-01   1.9198926e-03
   4.0800000e-01   6.6064588e-01   6.6012467e-01   7.7399292e-03
   4.1600000e-01   6.5975891e-01   6.5970539e-01   5.4484030e-03
   4.2400000e-01   6.5907732e-01   6.5928639e-01   1.4590848e-04
   4.3200000e-01   6.6310577e-01   6.5886765e-01   4.4196677e-03
   4.4000000e-01   6.5807569e-01   6.5844917e-01   1.3836544e-03
   4.4800000e-01   6.5566076e-01   6.5803097e-01   3.7072721e-03
   4.5600000e-01   6.6239611e-01   6.5761302e-01   3.9791933e-03
   4.6400000e-01   6.6134581e-01   6.5719535e-01   2.3635924e-03
   4.7200000e-01   6.6375322e-01   6.5677793e-01  -5.4499698e-03
   4.8000000e-01   6.7619139e-01   6.5636079e-01   4.1301029e-03
   4.8800000e-01   6.6862852e-01   6.5594391e-01   8.0635694e-03
   4.9600000e-01   6.6902704e-01   6.5552729e-01   3.2503887e-03
   5.0400000e-01   6.7082959e-01   6.5511094e-01  -1.3715278e-03
   5.1200000e-01   6.7692813e-01   6.5469485e-01  -1.2798512e-03
   5.2000000e-01   6.7563587e-01   6.5427902e-01   6.2263144e-03
   5.2800000e-01   6.7789443e-01   6.5386347e-01   1.3359491e-03
   5.3600000e-01   6.8069431e-01   6.5344817e-01   3.8741709e-03
   5.4400000e-01   6.7151829e-01   6.5303314e-01   4.2720050e-03
   5.5200000e-01   6.6531908e-01   6.5261837e-01   1.5993933e-03
   5.6000000e-01   6.7803062e-01   6.5220386e-01   1.6524081e-03
   5.6800000e-01   6.7668069e-01   6.5178962e-01  -2.9127312e-03
   5.7600000e-01   6.7246481e-01   6.5137565e-01   7.3096619e-03
   5.8400000e-01   6.8332330e-01   6.5096193e-01  -1.8682615e-03
   5.9200000e-01   6.8221851e-01   6.5054848e-01   2.7302477e-03
   6.0000000e-01   6.7868289e-01   6.5013529e-01   1.3075384e-03
   6.0800000e-01   6.7309153e-01   6.4972236e-01   6.3269830e-04
   6.1600000e-01   6.7348236e-01   6.4930969e-01   4.3390265e-04
   6.2400000e-01   6.8215853e-01   6.4889729e-01   1.6944600e-03
   6.3200000e-01   6.7741373e-01   6.4848515e-01   6.6447276e-03
   6.4000000e-01   6.7804922e-01   6.4807327e-01   7.7696693e-04
   6.4800000e-01   6.7989596e-01   6.4766165e-01  -4.1638153e-03
   6.5600000e-01   6.6783006e-01   6.4725030e-01   1.0775163e-03
   6.6400000e-01   6.6467670e-01   6.4683920e-01   2.5871664e-03
   6.7200000e-01   6.7117594e-01   6.4642837e-01  -1.8274448e-03
   6.8000000e-01   6.7002678e-01   6.4601779e-01   2.2555443e-03
   6.8800000e-01   6.6382678e-01   6.4560748e-01   4.5113599e-03
   6.9600000e-01   6.6151408e-01   6.4519743e-01  -1.8563983e-03
   7.0400000e-01   6.6423389e-01   6.4478764e-01  -6.9700621e-03
   7.1200000e-01   6.5607369e-01   6.4437811e-01   6.2937047e-03
   7.2000000e-01   6.5472401e-01   6.4396883e-01   5.3139198e-03
   7.2800000e-01   6.5775864e-01   6.4355982e-01   3.9401541e-03
   7.3600000e-01   6.5359645e-01   6.4315107e-01  -7.6310858e-05
   7.4400000e-01   6.4897128e-01   6.4274258e-01  -3.7706879e-03
   7.5200000e-01   6.4976578e-01   6.4233435e-01  -7.5339476e-04
   7.6000000e-01   6.4652673e-01   6.4192638e-01   3.9628886e-03
   7.6800000e-01   6.4936694e-01   6.4151866e-01   6.2214765e-03
   7.7600000e-01   6.4593304e-01   6.4111121e-01  -1.2816396e-03
   7.8400000e-01   6.4268780e-01   6.4070401e-01  -1.6132206e-03
   7.9200000e-01   6.4118202e-01   6.4029707e-01   1.4033711e-03
   8.0000000e-01   6.3827678e-01   6.3989039e-01   2.3126034e-03
   8.0800000e-01   6.3554886e-01   6.3948397e-01   3.8857529e-04
   8.1600000e-01   6.3258549e-01   6.3907781e-01   9.7999308e-04
   8.2400000e-01   6.3416313e-01   6.3867191e-01  -3.2911180e-03
   8.3200000e-01   6.2995760e-01   6.3826626e-01   5.4333388e-03
   8.4000000e-01   6.2342372e-01   6.3786087e-01  -2.1358122e-03
   8.4800000e-01   6.2777372e-01   6.3745574e-01  -5.9010120e-03
   8.5600000e-01   6.3013449e-01   6.3705086e-01  -5.1267773e-03
   8.6400000e-01   6.2814736e-01   6.3664625e-01   4.3066419e-03
   8.7200000e-01   6.2798805e-01   6.3624189e-01   4.0118086e-04
   8.8000000e-01   6.2087007e-01   6.3583778e-01  -1.6468284e-03
   8.8800000e-01   6.2476727e-01   6.3543394e-01  -7.1796806e-03
   8.9600000e-01   6.2867544e-01   6.3503035e-01  -6.3817847e-03
   9.0400000e-01   6.2728302e-01   6.3462701e-01  -5.9178635e-05
   9.1200000e-01   6.1985102e-01   6.3422393e-01   3.0594126e-03
   9.2000000e-01   6.2126337e-01   6.3382111e-01   3.7184314e-03
   9.2800000e-01   6.2936158e-01   6.3341855e-01   6.5579228e-04
   9.3600000e-01   6.2866583e-01   6.3301624e-01   1.5202601e-03
   9.4400000e-01   6.2593508e-01   6.3261418e-01   7.0332289e-03
   9.5200000e-01   6.2305095e-01   6.3221238e-01  -4.4655448e-03
   9.6000000e-01   6.1561165e-01   6.3181084e-01   1.4581477e-03
   9.6800000e-01   6.2674490e-01   6.3140955e-01  -3.2216317e-04
   9.7600000e-01   6.2825540e-01   6.3100852e-01   2.7825931e-03
   9.8400000e-01   6.2188817e-01   6.3060774e-01   2.0207068e-03
   9.9200000e-01   6.2176501e-01   6.3020721e-01  -2.3274206e-03
   1.0000000e+00   6.1894289e-01   6.2980694e-01   3.3329232e-03
   1.0080000e+00   6.2890138e-01   6.2940692e-01  -1.0757938e-03
   1.0160000e+00   6.3062223e-01   6.2900716e-01  -2.7601660e-03
   1.0240000e+00   6.2234927e-01   6.2860765e-01   1.3098170e-03
   1.0320000e+00   6.3039186e-01   6.2820840e-01   6.0188674e-03
   1.0400000e+00   6.2730296e-01   6.2780940e-01  -4.9543805e-03
   1.0480000e+00   6.2556255e-01   6.2741065e-01  -5.8726332e-03
   1.0560000e+00   6.2757451e-01   6.2701216e-01   1.3231748e-03
   1.0640000e+00   6.2723374e-01   6.2661392e-01  -1.0175150e-02
   1.0720000e+00   6.2315945e-01   6.2621593e-01  -3.8613991e-03
   1.0800000e+00   6.2428472e-01   6.2581819e-01   9.7606403e-03
   1.0880000e+00   6.2549776e-01   6.2542071e-01   4.1215905e-03
   1.0960000e+00   6.1983938e-01   6.2502348e-01   1.0099243e-03
   1.1040000e+00   6.1914504e-01   6.2462650e-01   6.7041339e-03
   1.1120000e+00   6.3128411e-01   6.2422977e-01   9.2522875e-03
   1.1200000e+00   6.3452706e-01   6.2383330e-01   9.0538011e-04
   1.1280000e+00   6.3258598e-01   6.2343708e-01  -6.5876127e-03
   1.1360000e+00   6.2956017e-01   6.2304111e-01   1.4622416e-03
   1.1440000e+00   6.3018370e-01   6.2264539e-01   5.8352680e-03
   1.1520000e+00   6.2482523e-01   6.2224992e-01   1.8045846e-03
   1.1600000e+00   6.2594974e-01   6.2185470e-01   2.3261125e-03
   1.1680000e+00   6.3183354e-01   6.2145974e-01   7.2273730e-04
   1.1760000e+00   6.3305375e-01   6.2106502e-01   1.6133285e-03
   1.1840000e+00   6.3203551e-01   6.2067056e-01   3.9718719e-03
   1.1920000e+00   6.1876777e-01   6.2027635e-01   3.3377965e-03
   1.2000000e+00   6.3100710e-01   6.1988238e-01   5.5817562e-04
   1.2080000e+00   6.2776169e-01   6.1948867e-01   1.5967032e-03
   1.2160000e+00   6.1852058e-01   6.1909521e-01  -1.1696362e-02
   1.2240000e+00   6.2233034e-01   6.1870200e-01  -1.2955443e-02
   1.2320000e+00   6.1886884e-01   6.1830903e-01  -3.1701218e-04
   1.2400000e+00   6.2191798e-01   6.1791632e-01   6.7280434e-03
   1.2480000e+00   6.2307098e-01   6.1752385e-01  -1.5546293e-03
   1.2560000e+00   6.2487093e-01   6.1713164e-01  -3.0157123e-03
   1.2640000e+00   6.2275683e-01   6.1673967e-01  -1.0280511e-04
   1.2720000e+00   6.2156314e-01   6.1634796e-01   1.2992221e-03
   1.2800000e+00   6.1783831e-01   6.1595649e-01  -2.0113662e-03
   1.2880000e+00   6.1691983e-01   6.1556527e-01   2.5009333e-03
   1.2960000e+00   6.1709854e-01   6.1517430e-01  -3.4327072e-03
   1.3040000e+00   6.1162121e-01   6.1478358e-01  -6.9082407e-03
   1.3120000e+00   6.1452282e-01   6.1439310e-01  -1.5936297e-03
   1.3200000e+00   6.1734536e-01   6.1400288e-01  -3.7309035e-03
   1.3280000e+00   6.1069994e-01   6.1361290e-01   1.4537619e-03
   1.3360000e+00   6.1067635e-01   6.1322317e-01   1.6935659e-04
   1.3440000e+00   6.1389485e-01   6.1283368e-01   6.6246427e-04
   1.3520000e+00   6.1499589e-01   6.1244445e-01   9.4981210e-04
   1.3600000e+00   6.2280616e-01   6.1205546e-01  -3.4616664e-03
   1.3680000e+00   6.1736388e-01   6.1166672e-01   2.0302601e-04
   1.3760000e+00   6.1123764e-01   6.1127822e-01   1.2979514e-03
   1.3840000e+00   6.1064968e-01   6.1088998e-01  -3.4010119e-03
   1.3920000e+00   6.0970885e-01   6.1050197e-01   2.5057230e-03
   1.4000000e+00   6.0961085e-01   6.1011422e-01   8.3467034e-03
   1.4080000e+00   6.0688460e-01   6.0972671e-01   3.4711515e-03
   1.4160000e+00   6.0441351e-01   6.0933945e-01   1.0857176e-03
   1.4240000e+00   6.1089017e-01   6.0895243e-01  -2.8516665e-03
   1.4320000e+00   6.0766579e-01   6.0856566e-01   5.2707391e-04
   1.4400000e+00   6.0645796e-01   6.0817914e-01  -3.4143722e-03
   1.4480000e+00   6.0672570e-01   6.0779286e-01  -2.2272898e-03
   1.4560000e+00   6.0638961e-01   6.0740682e-01  -4.0372909e-03
   1.4640000e+00   6.0330776e-01   6.0702103e-01   4.8871709e-04
   1.4720000e+00   6.0443867e-01   6.0663549e-01   5.6641358e-03
   1.4800000e+00   6.0916327e-01   6.0625019e-01   2.8768294e-03
   1.4880000e+00   6.0446698e-01   6.0586513e-01   4.0354439e-03
   1.4960000e+00   6.0168112e-01   6.0548033e-01   2.9216331e-03
   1.5040000e+00   5.9960873e-01   6.0509576e-01  -4.9833607e-03
   1.5120000e+00   6.0567557e-01   6.0471144e-01   1.1880658e-03
   1.5200000e+00   6.0383540e-01   6.0432736e-01   6.6581247e-03
   1.5280000e+00   5.9802747e-01   6.0394353e-01  -6.9629940e-03
   1.5360000e+00   6.0071222e-01   6.0355994e-01  -7.0549695e-03
   1.5440000e+00   6.0063076e-01   6.0317659e-01   6.0264718e-04
   1.5520000e+00   6.0044376e-01   6.0279349e-01  -8.0477087e-04
   1.5600000e+00   5.9810234e-01   6.0241063e-01  -8.8352735e-03
   1.5680000e+00   6.0071418e-01   6.0202802e-01   5.0648125e-03
   1.5760000e+00   5.9851185e-01   6.0164564e-01   3.1313796e-03
   1.5840000e+00   5.9870814e-01   6.0126351e-01   1.4873268e-03
   1.5920000e+00   5.9662969e-01   6.0088163e-01   7.6558611e-03
   1.6000000e+00   5.9760758e-01   6.0049998e-01  -8.8564701e-04
   1.6080000e+00   6.0023005e-01   6.0011858e-01  -3.8110361e-03
   1.6160000e+00   6.0159439e-01   5.9973742e-01  -1.1166965e-03
   1.6240000e+00   6.0391809e-01   5.9935650e-01   2.8704987e-03
   1.6320000e+00   6.0418719e-01   5.9897583e-01   1.3268492e-03
   1.6400000e+00   5.9434712e-01   5.9859539e-01  -8.3990760e-04
   1.6480000e+00   5.9954452e-01   5.9821520e-01   1.4714888e-03
   1.6560000e+00   6.0049260e-01   5.9783525e-01  -6.3368173e-03
   1.6640000e+00   5.9330569e-01   5.9745554e-01  -1.1281190e-02
   1.6720000e+00   5.8848056e-01   5.9707607e-01  -1.1507933e-02
   1.6800000e+00   5.9300321e-01   5.9669684e-01  -5.0739435e-03
   1.6880000e+00   5.9500882e-01   5.9631786e-01  -4.0571480e-03
   1.6960000e+00   6.0042798e-01   5.9593911e-01  -2.9200878e-03
   1.7040000e+00   5.8800708e-01   5.9556060e-01   2.0973834e-03
   1.7120000e+00   5.9459792e-01   5.9518234e-01  -3.2848316e-03
   1.7200000e+00   5.9949677e-01   5.9480431e-01  -7.1299273e-03
   1.7280000e+00   5.9774085e-01   5.9442653e-01  -2.7538198e-03
   1.7360000e+00   5.9686561e-01   5.9404898e-01   2.3135327e-03
   1.7440000e+00   5.9725285e-01   5.9367168e-01   7.7866851e-03
   1.7520000e+00   5.9705168e-01   5.9329461e-01   3.4492274e-03
   1.7600000e+00   5.8914991e-01   5.9291779e-01  -5.4631358e-04
   1.7680000e+00   5.9768764e-01   5.9254120e-01  -2.2756475e-03
   1.7760000e+00   5.8902979e-01   5.9216485e-01  -5.3875851e-03
   1.7840000e+00   5.8222888e-01   5.9178875e-01   7.0711171e-03
   1.7920000e+00   5.9043097e-01   5.9141288e-01   4.1930389e-03
   1.8000000e+00   5.9124767e-01   5.9103725e-01   3.8925885e-03
   1.8080000e+00   5.9885288e-01   5.9066185e-01   1.2957053e-03
   1.8160000e+00   5.9479009e-01   5.9028670e-01  -6.2318347e-03
   1.8240000e+00   5.8733263e-01   5.8991179e-01  -4.0295604e-04
   1.8320000e+00   5.8597388e-01   5.8953711e-01   3.2611361e-04
   1.8400000e+00   5.9335531e-01   5.8916267e-01   3.1476090e-03
   1.8480000e+00   5.9152992e-01   5.8878847e-01  -5.6351404e-04
   1.8560000e+00   5.8303922e-01   5.8841450e-01   4.7759176e-03
   1.8640000e+00   5.8250536e-01   5.8804078e-01  -8.8220753e-04
   1.8720000e+00   5.8003307e-01   5.8766729e-01  -6.4044033e-03
   1.8800000e+00   5.8470035e-01   5.8729404e-01  -2.1879432e-03
   1.8880000e+00   5.8943444e-01   5.8692102e-01  -1.0502851e-03
   1.8960000e+00   5.8482589e-01   5.8654824e-01  -1.5372153e-03
   1.9040000e+00   5.8101169e-01   5.8617570e-01  -3.9525125e-03
   1.9120000e+00   5.9285547e-01   5.8580340e-01  -7.0797411e-03
   1.9200000e+00   5.8711001e-01   5.8543133e-01   1.1459043e-03
   1.9280000e+00   5.8914910e-01   5.8505950e-01   5.9958207e-03
   1.9360000e+00   5.8792743e-01   5.8468790e-01  -7.2580403e-03
   1.9440000e+00   5.8212303e-01   5.8431655e-01  -3.3976000e-03
   1.9520000e+00   5.8261242e-01   5.8394542e-01  -9.3339411e-04
   1.9600000e+00   5.8526357e-01   5.8357453e-01   2.3224295e-03
   1.9680000e+00   5.7835521e-01   5.8320388e-01  -2.1860986e-03
   1.9760000e+00   5.7308490e-01   5.8283347e-01   1.3571887e-03
   1.9840000e+00   5.8175966e-01   5.8246328e-01   6.9104158e-03
   1.9920000e+00   5.7897440e-01   5.8209334e-01   4.2150506e-03
   2.0000000e+00   5.7783934e-01   5.8172363e-01  -5.5065655e-03
   2.0080000e+00   5.7823384e-01   5.8135415e-01  -1.0158328e-03
   2.0160000e+00   5.7656113e-01   5.8098491e-01   5.7211982e-03
   2.0240000e+00   5.8289029e-01   5.8061590e-01   2.7618440e-03
   2.0320000e+00   5.8189720e-01   5.8024713e-01   7.5557984e-03
   2.0400000e+00   5.7160165e-01   5.7987859e-01   2.0538075e-03
   2.0480000e+00   5.7132738e-01   5.7951028e-01  -3.5117017e-03
   2.0560000e+00   5.8555279e-01   5.7914221e-01  -4.9442843e-03
   2.0640000e+00   5.8324396e-01   5.7877438e-01  -4.5506809e-03
   2.0720000e+00   5.7045008e-01   5.7840677e-01   3.1968021e-03
   2.0800000e+00   5.6799292e-01   5.7803940e-01   3.0214885e-03
   2.0880000e+00   5.7963060e-01   5.7767227e-01   1.4123159e-03
   2.0960000e+00   5.7239449e-01   5.7730536e-01   2.6819834e-03
   2.1040000e+00   5.7025760e-01   5.7693869e-01  -4.0760288e-03
   2.1120000e+00   5.8000402e-01   5.7657225e-01  -9.9518947e-03
   2.1200000e+00   5.7595500e-01   5.7620605e-01  -3.5820446e-03
   2.1280000e+00   5.7525349e-01   5.7584008e-01  -5.6112802e-03
   2.1360000e+00   5.7135807e-01   5.7547434e-01  -1.2084725e-03
   2.1440000e+00   5.7435834e-01   5.7510883e-01   1.7829488e-03
   2.1520000e+00   5.7854574e-01   5.7474356e-01  -1.5518614e-03
   2.1600000e+00   5.8449999e-01   5.7437851e-01  -3.0367115e-03
   2.1680000e+00   5.7629884e-01   5.7401370e-01   8.8761757e-04
   2.1760000e+00   5.6701125e-01   5.7364912e-01   6.7444976e-06
   2.1840000e+00   5.6122411e-01   5.7328477e-01  -8.7003294e-03
   2.1920000e+00   5.7239531e-01   5.7292066e-01  -1.1970479e-03
   2.2000000e+00   5.7528260e-01   5.7255677e-01   5.2848206e-03
   2.2080000e+00   5.6885142e-01   5.7219312e-01  -3.3020918e-03
   2.2160000e+00   5.6808773e-01   5.7182969e-01  -3.2456696e-03
   2.2240000e+00   5.6571529e-01   5.7146650e-01   3.8096338e-03
   2.2320000e+00   5.6912637e-01   5.7110354e-01   6.3116460e-03
   2.2400000e+00   5.7054690e-01   5.7074081e-01   2.8192338e-03
   2.2480000e+00   5.6795703e-01   5.7037831e-01   5.2521110e-03
   2.2560000e+00   5.6463961e-01   5.7001604e-01  -2.4838265e-03
   2.2640000e+00   5.6281378e-01   5.6965399e-01  -2.4816729e-03
   2.2720000e+00   5.6179976e-01   5.6929218e-01   6.0587150e-03
   2.2800000e+00   5.6396357e-01   5.6893060e-01  -5.5883467e-04
   2.2880000e+00   5.6587633e-01   5.6856925e-01  -3.1727532e-03
   2.2960000e+00   5.6950474e-01   5.6820813e-01   3.5881571e-03
   2.3040000e+00   5.6825562e-01   5.6784724e-01  -3.6281134e-03
   2.3120000e+00   5.6413869e-01   5.6748657e-01  -6.3796516e-03
   2.3200000e+00   5.6170576e-01   5.6712614e-01  -1.0438857e-04
   2.3280000e+00   5.6674167e-01   5.6676594e-01  -7.3912938e-03
   2.3360000e+00   5.6043636e-01   5.6640596e-01  -2.4526560e-03
   2.3440000e+00   5.6677604e-01   5.6604621e-01  -3.0808337e-05
   2.3520000e+00   5.6544559e-01   5.6568669e-01   6.9200695e-04
   2.3600000e+00   5.6084085e-01   5.6532740e-01  -2.6643539e-05
   2.3680000e+00   5.6880742e-01   5.6496834e-01  -4.9310737e-04
   2.3760000e+00   5.6203845e-01   5.6460950e-01  -3.6787203e-03
   2.3840000e+00   5.6334060e-01   5.6425090e-01  -2.0059727e-03
   2.3920000e+00   5.6395445e-01   5.6389252e-01  -3.1738234e-03
   2.4000000e+00   5.6099984e-01   5.6353437e-01  -4.8043436e-03
   2.4080000e+00   5.5881291e-01   5.6317644e-01  -4.5600909e-03
   2.4160000e+00   5.6039095e-01   5.6281875e-01  -1.4411062e-03
   2.4240000e+00   5.5898188e-01   5.6246128e-01   2.9775013e-03
   2.4320000e+00   5.5996022e-01   5.6210403e-01   2.1047695e-03
   2.4400000e+00   5.6282314e-01   5.6174702e-01   1.2981461e-03
   2.4480000e+00   5.5714652e-01   5.6139023e-01   4.9472299e-04
   2.4560000e+00   5.5987837e-01   5.6103367e-01  -2.2024392e-03
   2.4640000e+00   5.6333474e-01   5.6067733e-01  -6.7394022e-03
   2.4720000e+00   5.6265815e-01   5.6032122e-01  -1.9745038e-03
   2.4800000e+00   5.6148178e-01   5.5996534e-01   3.2839807e-03
   2.4880000e+00   5.6147095e-01   5.5960968e-01   5.8598952e-03
   2.4960000e+00   5.6473952e-01   5.5925425e-01  -2.4426333e-04
   2.5040000e+00   5.5764963e-01   5.5889905e-01   1.8852858e-03
   2.5120000e+00   5.5853629e-01   5.5854407e-01   7.9176136e-04
   2.5200000e+00   5.5747815e-01   5.5818931e-01   7.8142314e-04
   2.5280000e+00   5.5815394e-01   5.5783478e-01   1.6714111e-03
   2.5360000e+00   5.5710650e-01   5.5748048e-01   9.6339401e-03
   2.5440000e+00   5.5147650e-01   5.5712640e-01   3.9827263e-03
   2.5520000e+00   5.5501280e-01   5.5677255e-01  -5.1264388e-03
   2.5600000e+00   5.5848560e-01   5.5641892e-01  -1.7705307e-03
   2.5680000e+00   5.5102522e-01   5.5606551e-01   3.3034141e-03
   2.5760000e+00   5.4823862e-01   5.5571233e-01   2.1800989e-03
   2.5840000e+00   5.6003280e-01   5.5535938e-01  -4.6972389e-03
   2.5920000e+00   5.5729963e-01   5.5500665e-01  -4.4416273e-04
   2.6000000e+00   5.5146104e-01   5.5465414e-01  -1.4822067e-03
   2.6080000e+00   5.6495911e-01   5.5430186e-01  -4.5597893e-03
   2.6160000e+00   5.5108505e-01   5.5394980e-01  -1.5125803e-04
   2.6240000e+00   5.5246773e-01   5.5359796e-01  -6.1723114e-03
   2.6320000e+00   5.4981175e-01   5.5324635e-01  -4.7168651e-03
   2.6400000e+00   5.5341128e-01   5.5289496e-01  -6.4445801e-03
   2.6480000e+00   5.5609881e-01   5.5254379e-01  -1.5851475e-03
   2.6560000e+00   5.5232024e-01   5.5219285e-01   2.9029347e-03
   2.6640000e+00   5.5362231e-01   5.5184213e-01   4.7797895e-05
   2.6720000e+00   5.4831910e-01   5.5149163e-01  -2.4594590e-04
   2.6800000e+00   5.4711160e-01   5.5114135e-01   2.5470466e-03
   2.6880000e+00   5.5586092e-01   5.5079130e-01  -4.9503021e-03
   2.6960000e+00   5.4852494e-01   5.5044147e-01  -7.3989158e-03
   2.7040000e+00   5.5181140e-01   5.5009186e-01  -3.7404736e-03
   2.7120000e+00   5.5440453e-01   5.4974248e-01  -2.3152684e-03
   2.7200000e+00   5.4919201e-01   5.4939331e-01   2.7171479e-03
   2.7280000e+00   5.5120022e-01   5.4904437e-01  -2.1098531e-03
   2.7360000e+00   5.5619023e-01   5.4869565e-01  -4.3605729e-03
   2.7440000e+00   5.4869059e-01   5.4834715e-01  -4.7606586e-03
   2.7520000e+00   5.4458374e-01   5.4799887e-01   6.2276651e-04
   2.7600000e+00   5.4697013e-01   5.4765082e-01  -5.8378384e-03
   2.7680000e+00   5.5001810e-01   5.4730298e-01   3.3502001e-03
   2.7760000e+00   5.4411095e-01   5.4695537e-01   1.2894892e-03
   2.7840000e+00   5.4392046e-01   5.4660797e-01   1.3539553e-03
   2.7920000e+00   5.4392923e-01   5.4626080e-01   8.0490018e-03
   2.8000000e+00   5.4365854e-01   5.4591385e-01  -3.0140392e-03
   2.8080000e+00   5.4189138e-01   5.4556711e-01  -1.5386157e-03
   2.8160000e+00   5.4639247e-01   5.4522060e-01   3.8510923e-03
   2.8240000e+00   5.5520928e-01   5.4487431e-01  -2.5083615e-03
   2.8320000e+00   5.4449214e-01   5.4452824e-01  -4.8273552e-03
   2.8400000e+00   5.4354174e-01   5.4418239e-01   2.5943656e-03
   2.8480000e+00   5.4431120e-01   5.4383675e-01  -4.9648188e-03
   2.8560000e+00   5.3392835e-01   5.4349134e-01  -1.4648141e-03
   2.8640000e+00   5.3997563e-01   5.4314615e-01  -5.9136190e-03
   2.8720000e+00   5.4803447e-01   5.4280117e-01  -4.1706995e-04
   2.8800000e+00   5.5214884e-01   5.4245642e-01   7.7347334e-03
   2.8880000e+00   5.4508864e-01   5.4211188e-01  -2.8943758e-03
   2.8960000e+00   5.3865496e-01   5.4176756e-01  -4.8218002e-03
   2.9040000e+00   5.4583419e-01   5.4142346e-01  -4.6022998e-04
   2.9120000e+00   5.4009285e-01   5.4107958e-01  -2.0268164e-03
   2.9200000e+00   5.4199069e-01   5.4073592e-01   2.7048003e-03
   2.9280000e+00   5.4270321e-01   5.4039248e-01   6.7983286e-03
   2.9360000e+00   5.4040779e-01   5.4004925e-01  -1.5864964e-03
   2.9440000e+00   5.4120849e-01   5.3970625e-01  -1.2898070e-03
   2.9520000e+00   5.4159801e-01   5.3936346e-01  -1.0039315e-03
   2.9600000e+00   5.3724916e-01   5.3902088e-01  -9.5438438e-06
   2.9680000e+00   5.3538245e-01   5.3867853e-01   1.2140799e-03
   2.9760000e+00   5.3956018e-01   5.3833639e-01   4.3510150e-03
   2.9840000e+00   5.3819131e-01   5.3799447e-01   7.5599177e-03
   2.9920000e+00   5.3858231e-01   5.3765277e-01   1.8341859e-03
   3.0000000e+00   5.4081904e-01   5.3731129e-01  -3.3062013e-04
   3.0080000e+00   5.4740812e-01   5.3697002e-01   3.6108989e-03
   3.0160000e+00   5.4609090e-01   5.3662897e-01   4.4785515e-04
   3.0240000e+00   5.3913646e-01   5.3628813e-01  -6.4391366e-03
   3.0320000e+00   5.4254459e-01   5.3594751e-01  -4.9056404e-03
   3.0400000e+00   5.4380257e-01   5.3560711e-01   4.6151522e-03
   3.0480000e+00   5.3716893e-01   5.3526692e-01   6.1181310e-03
   3.0560000e+00   5.3835203e-01   5.3492695e-01   3.5996830e-03
   3.0640000e+00   5.3781383e-01   5.3458720e-01  -2.8322185e-03
   3.0720000e+00   5.3481401e-01   5.3424766e-01   2.1886831e-03
   3.0800000e+00   5.3843609e-01   5.3390834e-01  -4.4363287e-03
   3.0880000e+00   5.3299096e-01   5.3356923e-01  -4.6622044e-03
   3.0960000e+00   5.3293021e-01   5.3323034e-01  -2.4617807e-03
   3.1040000e+00   5.3870016e-01   5.3289166e-01  -1.1827500e-02
