   0.0000000e+00   1.0026026e+00   1.0000000e+00
   8.0000000e-03   9.9993227e-01   9.9992991e-01
   1.6000000e-02   1.0000882e+00   9.9974237e-01
   2.4000000e-02   1.0007478e+00   9.9948787e-01
   3.2000000e-02   1.0009274e+00   9.9921110e-01
   4.0000000e-02   1.0000802e+00   9.9893460e-01
   4.8000000e-02   9.9958842e-01   9.9866637e-01
   5.6000000e-02   9.9973361e-01   9.9841138e-01
   6.4000000e-02   9.9898381e-01   9.9817228e-01
   7.2000000e-02   9.9919979e-01   9.9794571e-01
   8.0000000e-02   9.9885781e-01   9.9772470e-01
   8.8000000e-02   9.9797106e-01   9.9750473e-01
   9.6000000e-02   9.9772059e-01   9.9728551e-01
   1.0400000e-01   9.9815621e-01   9.9706801e-01
   1.1200000e-01   9.9874205e-01   9.9685245e-01
   1.2000000e-01   9.9744210e-01   9.9663871e-01
   1.2800000e-01   9.9671689e-01   9.9642620e-01
   1.3600000e-01   9.9654972e-01   9.9621296e-01
   1.4400000e-01   9.9694839e-01   9.9599606e-01
   1.5200000e-01   9.9723340e-01   9.9577356e-01
   1.6000000e-01   9.9545590e-01   9.9554538e-01
   1.6800000e-01   9.9670080e-01   9.9531239e-01
   1.7600000e-01   9.9649093e-01   9.9507552e-01
   1.8400000e-01   9.9636682e-01   9.9483562e-01
   1.9200000e-01   9.9584635e-01   9.9459321e-01
   2.0000000e-01   9.9355499e-01   9.9434800e-01
   2.0800000e-01   9.9519254e-01   9.9409910e-01
   2.1600000e-01   9.9514232e-01   9.9384603e-01
   2.2400000e-01   9.9405006e-01   9.9358923e-01
   2.3200000e-01   9.9501293e-01   9.9332963e-01
   2.4000000e-01   9.9381416e-01   9.9306819e-01
   2.4800000e-01   9.9269984e-01   9.9280574e-01
   2.5600000e-01   9.9238483e-01   9.9254282e-01
   2.6400000e-01   9.9368424e-01   9.9227938e-01
   2.7200000e-01   9.9202431e-01   9.9201493e-01
   2.8000000e-01   9.9283118e-01   9.9174926e-01
   2.8800000e-01   9.9101006e-01   9.9148270e-01
   2.9600000e-01   9.9324836e-01   9.9121597e-01
   3.0400000e-01   9.9275668e-01   9.9094977e-01
   3.1200000e-01   9.9224115e-01   9.9068471e-01
   3.2000000e-01   9.9096410e-01   9.9042122e-01
   3.2800000e-01   9.9106988e-01   9.9015927e-01
   3.3600000e-01   9.9017504e-01   9.8989851e-01
   3.4400000e-01   9.9030240e-01   9.8963880e-01
   3.5200000e-01   9.9051511e-01   9.8938041e-01
   3.6000000e-01   9.9078083e-01   9.8912388e-01
   3.6800000e-01   9.8955515e-01   9.8886973e-01
   3.7600000e-01   9.8892160e-01   9.8861843e-01
   3.8400000e-01   9.8792121e-01   9.8837027e-01
   3.9200000e-01   9.8895088e-01   9.8812517e-01
   4.0000000e-01   9.8806367e-01   9.8788282e-01
   4.0800000e-01   9.8720593e-01   9.8764308e-01
   4.1600000e-01   9.8808223e-01   9.8740613e-01
   4.2400000e-01   9.8785103e-01   9.8717234e-01
   4.3200000e-01   9.8786258e-01   9.8694208e-01
   4.4000000e-01   9.8687466e-01   9.8671566e-01
   4.4800000e-01   9.8588279e-01   9.8649325e-01
   4.5600000e-01   9.8630173e-01   9.8627474e-01
   4.6400000e-01   9.8606215e-01   9.8605980e-01
   4.7200000e-01   9.8593155e-01   9.8584826e-01
   4.8000000e-01   9.8686018e-01   9.8564023e-01
   4.8800000e-01   9.8607014e-01   9.8543596e-01
   4.9600000e-01   9.8484775e-01   9.8523571e-01
   5.0400000e-01   9.8527410e-01   9.8503969e-01
   5.1200000e-01   9.8518219e-01   9.8484799e-01
   5.2000000e-01   9.8554408e-01   9.8466043e-01
   5.2800000e-01   9.8458875e-01   9.8447669e-01
   5.3600000e-01   9.8439153e-01   9.8429658e-01
   5.4400000e-01   9.8433119e-01   9.8412015e-01
   5.5200000e-01   9.8500898e-01   9.8394759e-01
   5.6000000e-01   9.8502992e-01   9.8377904e-01
   5.6800000e-01   9.8417830e-01   9.8361465e-01
   5.7600000e-01   9.8320866e-01   9.8345444e-01
   5.8400000e-01   9.8285861e-01   9.8329821e-01
   5.9200000e-01   9.8327239e-01   9.8314562e-01
   6.0000000e-01   9.8272766e-01   9.8299645e-01
   6.0800000e-01   9.8353355e-01   9.8285073e-01
   6.1600000e-01   9.8233545e-01   9.8270859e-01
   6.2400000e-01   9.8227825e-01   9.8257010e-01
   6.3200000e-01   9.8259776e-01   9.8243535e-01
   6.4000000e-01   9.8316391e-01   9.8230434e-01
   6.4800000e-01   9.8360318e-01   9.8217684e-01
   6.5600000e-01   9.8169449e-01   9.8205249e-01
   6.6400000e-01   9.8277824e-01   9.8193107e-01
   6.7200000e-01   9.8117174e-01   9.8181261e-01
   6.8000000e-01   9.8122979e-01   9.8169721e-01
   6.8800000e-01   9.8295590e-01   9.8158490e-01
   6.9600000e-01   9.8169759e-01   9.8147572e-01
   7.0400000e-01   9.8109241e-01   9.8136967e-01
   7.1200000e-01   9.8147627e-01   9.8126655e-01
   7.2000000e-01   9.8183481e-01   9.8116598e-01
   7.2800000e-01   9.8059596e-01   9.8106773e-01
   7.3600000e-01   9.8033893e-01   9.8097188e-01
   7.4400000e-01   9.8058944e-01   9.8087853e-01
   7.5200000e-01   9.8026941e-01   9.8078767e-01
   7.6000000e-01   9.8043845e-01   9.8069932e-01
   7.6800000e-01   9.8039223e-01   9.8061350e-01
   7.7600000e-01   9.8031686e-01   9.8053007e-01
   7.8400000e-01   9.8097387e-01   9.8044864e-01
   7.9200000e-01   9.7971038e-01   9.8036896e-01
   8.0000000e-01   9.8019781e-01   9.8029115e-01
   8.0800000e-01   9.8077559e-01   9.8021538e-01
   8.1600000e-01   9.8076735e-01   9.8014165e-01
   8.2400000e-01   9.7956887e-01   9.8006987e-01
   8.3200000e-01   9.8020756e-01   9.8000012e-01
   8.4000000e-01   9.8207104e-01   9.7993235e-01
   8.4800000e-01   9.8178750e-01   9.7986622e-01
   8.5600000e-01   9.7998428e-01   9.7980139e-01
   8.6400000e-01   9.8039433e-01   9.7973796e-01
   8.7200000e-01   9.8089184e-01   9.7967627e-01
   8.8000000e-01   9.7876949e-01   9.7961638e-01
   8.8800000e-01   9.7901058e-01   9.7955809e-01
   8.9600000e-01   9.8014275e-01   9.7950138e-01
   9.0400000e-01   9.7975748e-01   9.7944634e-01
   9.1200000e-01   9.8001172e-01   9.7939280e-01
   9.2000000e-01   9.7965623e-01   9.7934037e-01
   9.2800000e-01   9.7892895e-01   9.7928897e-01
   9.3600000e-01   9.8003136e-01   9.7923896e-01
   9.4400000e-01   9.7869189e-01   9.7919068e-01
   9.5200000e-01   9.8136211e-01   9.7914399e-01
   9.6000000e-01   9.8009795e-01   9.7909859e-01
   9.6800000e-01   9.7852829e-01   9.7905448e-01
   9.7600000e-01   9.7910304e-01   9.7901172e-01
   9.8400000e-01   9.7912829e-01   9.7897015e-01
   9.9200000e-01   9.7891837e-01   9.7892955e-01
   1.0000000e+00   9.7846001e-01   9.7889000e-01
   1.0080000e+00   9.7985237e-01   9.7885188e-01
   1.0160000e+00   9.7867226e-01   9.7881540e-01
   1.0240000e+00   9.7913613e-01   9.7878036e-01
   1.0320000e+00   9.7824401e-01   9.7874644e-01
   1.0400000e+00   9.7877507e-01   9.7871346e-01
   1.0480000e+00   9.7825518e-01   9.7868150e-01
   1.0560000e+00   9.7865009e-01   9.7865067e-01
   1.0640000e+00   9.7875092e-01   9.7862100e-01
   1.0720000e+00   9.7877193e-01   9.7859252e-01
   1.0800000e+00   9.7817580e-01   9.7856531e-01
   1.0880000e+00   9.7855158e-01   9.7853946e-01
   1.0960000e+00   9.7821944e-01   9.7851489e-01
   1.1040000e+00   9.7792033e-01   9.7849134e-01
   1.1120000e+00   9.7892923e-01   9.7846851e-01
   1.1200000e+00   9.7715467e-01   9.7844644e-01
   1.1280000e+00   9.7856117e-01   9.7842544e-01
   1.1360000e+00   9.7781458e-01   9.7840580e-01
   1.1440000e+00   9.7650757e-01   9.7838752e-01
   1.1520000e+00   9.7755029e-01   9.7837034e-01
   1.1600000e+00   9.7881835e-01   9.7835406e-01
   1.1680000e+00   9.7878630e-01   9.7833863e-01
   1.1760000e+00   9.7770481e-01   9.7832403e-01
   1.1840000e+00   9.7818004e-01   9.7831026e-01
   1.1920000e+00   9.7945140e-01   9.7829736e-01
   1.2000000e+00   9.7704855e-01   9.7828543e-01
   1.2080000e+00   9.7746500e-01   9.7827463e-01
   1.2160000e+00   9.7754981e-01   9.7826499e-01
   1.2240000e+00   9.7847948e-01   9.7825637e-01
   1.2320000e+00   9.7785146e-01   9.7824845e-01
   1.2400000e+00   9.7806614e-01   9.7824097e-01
   1.2480000e+00   9.7810893e-01   9.7823395e-01
   1.2560000e+00   9.7661021e-01   9.7822770e-01
   1.2640000e+00   9.7722231e-01   9.7822256e-01
   1.2720000e+00   9.7773407e-01   9.7821855e-01
   1.2800000e+00   9.7902646e-01   9.7821545e-01
   1.2880000e+00   9.7784782e-01   9.7821297e-01
   1.2960000e+00   9.7815050e-01   9.7821093e-01
   1.3040000e+00   9.7875711e-01   9.7820929e-01
   1.3120000e+00   9.7748608e-01   9.7820815e-01
   1.3200000e+00   9.7746629e-01   9.7820765e-01
   1.3280000e+00   9.7832285e-01   9.7820793e-01
   1.3360000e+00   9.7782555e-01   9.7820901e-01
   1.3440000e+00   9.7818466e-01   9.7821086e-01
   1.3520000e+00   9.7817624e-01   9.7821337e-01
   1.3600000e+00   9.7954962e-01   9.7821633e-01
   1.3680000e+00   9.7925608e-01   9.7821947e-01
   1.3760000e+00   9.7713273e-01   9.7822269e-01
   1.3840000e+00   9.7932736e-01   9.7822621e-01
   1.3920000e+00   9.7845450e-01   9.7823037e-01
   1.4000000e+00   9.7800796e-01   9.7823541e-01
   1.4080000e+00   9.7816462e-01   9.7824127e-01
   1.4160000e+00   9.7719320e-01   9.7824766e-01
   1.4240000e+00   9.7874918e-01   9.7825413e-01
   1.4320000e+00   9.7771667e-01   9.7826040e-01
   1.4400000e+00   9.7921381e-01   9.7826654e-01
   1.4480000e+00   9.7761181e-01   9.7827294e-01
   1.4560000e+00   9.7793469e-01   9.7828000e-01
   1.4640000e+00   9.7756810e-01   9.7828786e-01
   1.4720000e+00   9.7902313e-01   9.7829632e-01
   1.4800000e+00   9.7978874e-01   9.7830505e-01
   1.4880000e+00   9.7697425e-01   9.7831370e-01
   1.4960000e+00   9.7779563e-01   9.7832207e-01
   1.5040000e+00   9.7835143e-01   9.7833021e-01
   1.5120000e+00   9.7805094e-01   9.7833842e-01
   1.5200000e+00   9.7848924e-01   9.7834705e-01
   1.5280000e+00   9.7933798e-01   9.7835625e-01
   1.5360000e+00   9.7747660e-01   9.7836597e-01
   1.5440000e+00   9.7867325e-01   9.7837600e-01
   1.5520000e+00   9.7861498e-01   9.7838601e-01
   1.5600000e+00   9.7887602e-01   9.7839564e-01
   1.5680000e+00   9.7735013e-01   9.7840473e-01
   1.5760000e+00   9.7874721e-01   9.7841348e-01
   1.5840000e+00   9.7900812e-01   9.7842236e-01
   1.5920000e+00   9.7756510e-01   9.7843177e-01
   1.6000000e+00   9.7797367e-01   9.7844183e-01
   1.6080000e+00   9.7850968e-01   9.7845238e-01
   1.6160000e+00   9.7754919e-01   9.7846294e-01
   1.6240000e+00   9.7907295e-01   9.7847291e-01
   1.6320000e+00   9.7759340e-01   9.7848195e-01
   1.6400000e+00   9.7902660e-01   9.7849024e-01
   1.6480000e+00   9.7813779e-01   9.7849844e-01
   1.6560000e+00   9.7799039e-01   9.7850719e-01
   1.6640000e+00   9.7796512e-01   9.7851675e-01
   1.6720000e+00   9.7731740e-01   9.7852693e-01
   1.6800000e+00   9.7972403e-01   9.7853718e-01
   1.6880000e+00   9.7846806e-01   9.7854675e-01
   1.6960000e+00   9.7885917e-01   9.7855512e-01
   1.7040000e+00   9.7983567e-01   9.7856239e-01
   1.7120000e+00   9.7876847e-01   9.7856927e-01
   1.7200000e+00   9.7775170e-01   9.7857658e-01
   1.7280000e+00   9.7901704e-01   9.7858474e-01
   1.7360000e+00   9.7859364e-01   9.7859363e-01
   1.7440000e+00   9.7927633e-01   9.7860277e-01
   1.7520000e+00   9.7811680e-01   9.7861142e-01
   1.7600000e+00   9.7829411e-01   9.7861885e-01
   1.7680000e+00   9.7792763e-01   9.7862490e-01
   1.7760000e+00   9.7923150e-01   9.7863010e-01
   1.7840000e+00   9.7847704e-01   9.7863533e-01
   1.7920000e+00   9.7827289e-01   9.7864123e-01
   1.8000000e+00   9.7899335e-01   9.7864797e-01
   1.8080000e+00   9.7784212e-01   9.7865525e-01
   1.8160000e+00   9.7986852e-01   9.7866246e-01
   1.8240000e+00   9.7940761e-01   9.7866880e-01
   1.8320000e+00   9.7876091e-01   9.7867371e-01
   1.8400000e+00   9.7908472e-01   9.7867726e-01
   1.8480000e+00   9.7817516e-01   9.7868017e-01
   1.8560000e+00   9.7822429e-01   9.7868328e-01
   1.8640000e+00   9.7864257e-01   9.7868712e-01
   1.8720000e+00   9.8065569e-01   9.7869176e-01
   1.8800000e+00   9.7978594e-01   9.7869685e-01
   1.8880000e+00   9.7880279e-01   9.7870169e-01
   1.8960000e+00   9.7834132e-01   9.7870550e-01
   1.9040000e+00   9.7819232e-01   9.7870782e-01
   1.9120000e+00   9.7800478e-01   9.7870881e-01
   1.9200000e+00   9.7852486e-01   9.7870918e-01
   1.9280000e+00   9.7863341e-01   9.7870977e-01
   1.9360000e+00   9.7849143e-01   9.7871110e-01
   1.9440000e+00   9.7867112e-01   9.7871324e-01
   1.9520000e+00   9.7838589e-01   9.7871577e-01
   1.9600000e+00   9.7932143e-01   9.7871803e-01
   1.9680000e+00   9.7912831e-01   9.7871929e-01
   1.9760000e+00   9.7805098e-01   9.7871914e-01
   1.9840000e+00   9.7821239e-01   9.7871768e-01
   1.9920000e+00   9.7796075e-01   9.7871551e-01
   2.0000000e+00   9.7927159e-01   9.7871341e-01
   2.0080000e+00   9.7826059e-01   9.7871196e-01
   2.0160000e+00   9.7767029e-01   9.7871124e-01
   2.0240000e+00   9.7836674e-01   9.7871091e-01
   2.0320000e+00   9.7794440e-01   9.7871045e-01
   2.0400000e+00   9.7842216e-01   9.7870930e-01
   2.0480000e+00   9.7919151e-01   9.7870700e-01
   2.0560000e+00   9.7845276e-01   9.7870346e-01
   2.0640000e+00   9.7936424e-01   9.7869902e-01
   2.0720000e+00   9.7789423e-01   9.7869432e-01
   2.0800000e+00   9.7816552e-01   9.7868991e-01
   2.0880000e+00   9.7846432e-01   9.7868603e-01
   2.0960000e+00   9.7827970e-01   9.7868261e-01
   2.1040000e+00   9.7843233e-01   9.7867937e-01
   2.1120000e+00   9.7747535e-01   9.7867592e-01
   2.1200000e+00   9.7858606e-01   9.7867179e-01
   2.1280000e+00   9.7914886e-01   9.7866667e-01
   2.1360000e+00   9.7802640e-01   9.7866050e-01
   2.1440000e+00   9.7885557e-01   9.7865354e-01
   2.1520000e+00   9.7852929e-01   9.7864629e-01
   2.1600000e+00   9.7972388e-01   9.7863922e-01
   2.1680000e+00   9.7996291e-01   9.7863264e-01
   2.1760000e+00   9.7865592e-01   9.7862657e-01
   2.1840000e+00   9.7933619e-01   9.7862077e-01
   2.1920000e+00   9.7915387e-01   9.7861489e-01
   2.2000000e+00   9.7791579e-01   9.7860847e-01
   2.2080000e+00   9.7934103e-01   9.7860109e-01
   2.2160000e+00   9.7895871e-01   9.7859258e-01
   2.2240000e+00   9.7842415e-01   9.7858319e-01
   2.2320000e+00   9.7963699e-01   9.7857347e-01
   2.2400000e+00   9.7812089e-01   9.7856397e-01
   2.2480000e+00   9.7783983e-01   9.7855504e-01
   2.2560000e+00   9.7766833e-01   9.7854672e-01
   2.2640000e+00   9.7775861e-01   9.7853879e-01
   2.2720000e+00   9.7823766e-01   9.7853084e-01
   2.2800000e+00   9.7801436e-01   9.7852239e-01
   2.2880000e+00   9.7929683e-01   9.7851305e-01
   2.2960000e+00   9.7876258e-01   9.7850271e-01
   2.3040000e+00   9.7761845e-01   9.7849157e-01
   2.3120000e+00   9.7709988e-01   9.7848006e-01
   2.3200000e+00   9.7862898e-01   9.7846867e-01
   2.3280000e+00   9.7972659e-01   9.7845773e-01
   2.3360000e+00   9.7882164e-01   9.7844731e-01
   2.3440000e+00   9.7806883e-01   9.7843723e-01
   2.3520000e+00   9.7775453e-01   9.7842726e-01
   2.3600000e+00   9.7752409e-01   9.7841717e-01
   2.3680000e+00   9.7803587e-01   9.7840667e-01
   2.3760000e+00   9.7755832e-01   9.7839549e-01
   2.3840000e+00   9.7690018e-01   9.7838355e-01
   2.3920000e+00   9.7843964e-01   9.7837099e-01
   2.4000000e+00   9.7859029e-01   9.7835810e-01
   2.4080000e+00   9.7817245e-01   9.7834521e-01
   2.4160000e+00   9.7882477e-01   9.7833262e-01
   2.4240000e+00   9.7778551e-01   9.7832056e-01
   2.4320000e+00   9.7874977e-01   9.7830909e-01
   2.4400000e+00   9.7893979e-01   9.7829804e-01
   2.4480000e+00   9.7809644e-01   9.7828706e-01
   2.4560000e+00   9.7906626e-01   9.7827573e-01
   2.4640000e+00   9.7859399e-01   9.7826364e-01
   2.4720000e+00   9.7795631e-01   9.7825056e-01
   2.4800000e+00   9.7854203e-01   9.7823661e-01
   2.4880000e+00   9.7786664e-01   9.7822231e-01
   2.4960000e+00   9.7771230e-01   9.7820827e-01
   2.5040000e+00   9.7785740e-01   9.7819491e-01
   2.5120000e+00   9.7952597e-01   9.7818237e-01
   2.5200000e+00   9.7920704e-01   9.7817056e-01
   2.5280000e+00   9.7681396e-01   9.7815916e-01
   2.5360000e+00   9.7738857e-01   9.7814766e-01
   2.5440000e+00   9.7737258e-01   9.7813557e-01
   2.5520000e+00   9.7780214e-01   9.7812266e-01
   2.5600000e+00   9.7832438e-01   9.7810899e-01
   2.5680000e+00   9.7829967e-01   9.7809479e-01
   2.5760000e+00   9.7821564e-01   9.7808045e-01
   2.5840000e+00   9.7797699e-01   9.7806639e-01
   2.5920000e+00   9.7888438e-01   9.7805294e-01
   2.6000000e+00   9.7802983e-01   9.7804013e-01
   2.6080000e+00   9.7786279e-01   9.7802782e-01
   2.6160000e+00   9.7898875e-01   9.7801582e-01
   2.6240000e+00   9.7792829e-01   9.7800402e-01
   2.6320000e+00   9.7765731e-01   9.7799216e-01
   2.6400000e+00   9.7699827e-01   9.7797992e-01
   2.6480000e+00   9.7820962e-01   9.7796707e-01
   2.6560000e+00   9.7855712e-01   9.7795363e-01
   2.6640000e+00   9.7728032e-01   9.7793978e-01
   2.6720000e+00   9.7859909e-01   9.7792581e-01
   2.6800000e+00   9.7801766e-01   9.7791209e-01
   2.6880000e+00   9.7745370e-01   9.7789900e-01
   2.6960000e+00   9.7873781e-01   9.7788676e-01
